01.08.2016 13:46:07 ==> No data received from phone.
01.08.2016 14:52:38 ==> No data received from phone.
01.08.2016 14:53:50 ==> No data received from phone.
01.08.2016 15:04:54 ==> No data received from phone.
